Basic example
…
Moving samples

Use random assignment function to place samples to plate
locations

bc <- assign_random(bc, samples)

bc$get_samples()
#> # A tibble: 88 × 10
#>    plate column   row replicate animal group treatment dose  SampleID AnimalID
#>    <int>  <int> <int> <chr>     <chr>  <dbl> <chr>     <fct> <chr>    <chr>   
#>  1     1      1     2 1         2          2 TRT1      25    TRT1_2_1 TRT1_2  
#>  2     1      1     3 4         3          4 TRT1      50    TRT1_3_4 TRT1_3  
#>  3     1      1     4 <NA>      <NA>      NA <NA>      <NA>  <NA>     <NA>    
#>  4     1      1     5 3         1          4 TRT1      50    TRT1_1_3 TRT1_1  
#>  5     1      2     1 <NA>      <NA>      NA <NA>      <NA>  <NA>     <NA>    
#>  6     1      2     2 <NA>      <NA>      NA <NA>      <NA>  <NA>     <NA>    
#>  7     1      2     3 4         2          2 TRT1      25    TRT1_2_4 TRT1_2  
#>  8     1      2     4 2         1          2 TRT1      25    TRT1_1_2 TRT1_1  
#>  9     1      2     5 2         2          4 TRT1      50    TRT1_2_2 TRT1_2  
#> 10     1      2     6 <NA>      <NA>      NA <NA>      <NA>  <NA>     <NA>    
#> # ℹ 78 more rows
bc$get_samples(remove_empty_locations = TRUE)
#> # A tibble: 60 × 10
#>    plate column   row replicate animal group treatment dose  SampleID AnimalID
#>    <int>  <int> <int> <chr>     <chr>  <dbl> <chr>     <fct> <chr>    <chr>   
#>  1     1      1     2 1         2          2 TRT1      25    TRT1_2_1 TRT1_2  
#>  2     1      1     3 4         3          4 TRT1      50    TRT1_3_4 TRT1_3  
#>  3     1      1     5 3         1          4 TRT1      50    TRT1_1_3 TRT1_1  
#>  4     1      2     3 4         2          2 TRT1      25    TRT1_2_4 TRT1_2  
#>  5     1      2     4 2         1          2 TRT1      25    TRT1_1_2 TRT1_1  
#>  6     1      2     5 2         2          4 TRT1      50    TRT1_2_2 TRT1_2  
#>  7     1      3     1 4         1          2 TRT1      25    TRT1_1_4 TRT1_1  
#>  8     1      3     4 2         3          4 TRT1      50    TRT1_3_2 TRT1_3  
#>  9     1      3     5 1         3          2 TRT1      25    TRT1_3_1 TRT1_3  
#> 10     1      3     6 3         1          3 TRT2      25    TRT2_1_3 TRT2_1  
#> # ℹ 50 more rows
…
