OSAT and scoring functions
…
Score demonstration

bc$score(scoring_f)
#>  score_1 
#> 360.8571

assign_random(bc)
#> Batch container with 672 locations and 576 samples (assigned).
#>   Dimensions: plates, chips, rows, columns

bc$get_samples()
#> # A tibble: 672 × 10
#>    plates chips  rows columns    ID SampleType Race     AgeGrp   dummy_var1
#>     <int> <int> <int>   <int> <dbl> <fct>      <fct>    <fct>         <dbl>
#>  1      1     1     1       1   563 Control    Hispanic (30,40]       0.342
#>  2      1     1     1       2   488 Control    European (30,40]       2.14 
#>  3      1     1     2       1   215 Case       European (50,60]      -0.152
#>  4      1     1     2       2   268 Case       Hispanic (40,50]       0.693
#>  5      1     1     3       1   165 Case       European (60,100]      0.582
#>  6      1     1     3       2    86 Case       Hispanic (60,100]      1.34 
#>  7      1     1     4       1   264 Case       European (60,100]      0.437
#>  8      1     1     4       2   451 Control    European (30,40]      -0.203
#>  9      1     1     5       1   250 Case       Hispanic (60,100]     -1.63 
#> 10      1     1     5       2    NA <NA>       <NA>     <NA>         NA    
#> # ℹ 662 more rows
#> # ℹ 1 more variable: dummy_var2 <chr>
bc$get_samples(remove_empty_locations = TRUE)
#> # A tibble: 576 × 10
#>    plates chips  rows columns    ID SampleType Race     AgeGrp   dummy_var1
#>     <int> <int> <int>   <int> <dbl> <fct>      <fct>    <fct>         <dbl>
#>  1      1     1     1       1   563 Control    Hispanic (30,40]       0.342
#>  2      1     1     1       2   488 Control    European (30,40]       2.14 
#>  3      1     1     2       1   215 Case       European (50,60]      -0.152
#>  4      1     1     2       2   268 Case       Hispanic (40,50]       0.693
#>  5      1     1     3       1   165 Case       European (60,100]      0.582
#>  6      1     1     3       2    86 Case       Hispanic (60,100]      1.34 
#>  7      1     1     4       1   264 Case       European (60,100]      0.437
#>  8      1     1     4       2   451 Control    European (30,40]      -0.203
#>  9      1     1     5       1   250 Case       Hispanic (60,100]     -1.63 
#> 10      1     1     6       1   191 Case       Hispanic (60,100]      0.696
#> # ℹ 566 more rows
#> # ℹ 1 more variable: dummy_var2 <chr>
…
