Shuffling with constraints
…
shuffle_proposal <- shuffle_with_subgroup_formation(subg, possible, report_grouping_as_attribute = TRUE)

shuffle_proposal()
#> $location_assignment
#>  [1]  9 10 13  8 11 12 14 38 39 40 41 42 43 44 45 46 47 48 49 50 51 52 53 54 55
#> [26] 59  2  3  4  5 56 57 58  1  6  7 35 36 37 19 20 21 26 27 15 16 17 18 22 23
#> [51] 24 25 28 29 30 31 32 33 34
#> 
#> $samples_attr
#> # A tibble: 59 × 4
#>    alloc_var_level group subgroup Cage 
#>    <chr>           <int>    <int> <chr>
#>  1 Treatment B         7        1 7_1  
#>  2 Treatment A         7        2 7_2  
#>  3 Treatment A         7        2 7_2  
#>  4 Treatment A         7        2 7_2  
#>  5 Treatment A         7        2 7_2  
#>  6 Treatment B         7        1 7_1  
#>  7 Treatment B         7        1 7_1  
#>  8 Treatment A         1        2 1_2  
#>  9 Treatment A         1        1 1_1  
#> 10 Treatment A         1        1 1_1  
#> # ℹ 49 more rows
…
